C51 COMPILER V9.00   IICRECIEVED                                                           04/22/2011 14:54:00 PAGE 1   


C51 COMPILER V9.00, COMPILATION OF MODULE IICRECIEVED
OBJECT MODULE PLACED IN IICrecieved.OBJ
COMPILER INVOKED BY: D:\Program Files\Keil\C51\BIN\C51.EXE IICrecieved.c BROWSE

line level    source

   1          #include<reg51.h>
   2          #define uchar unsigned char
   3          #define TR 1
   4          uchar idata buf[10];
   5          uchar pf;
   6          
   7          void init(void){
   8   1        TMOD=0x20;
   9   1        TH1=0xe8;
  10   1        TL1=0xe8;
  11   1        PCON=0x00;
  12   1        TR1=1;
  13   1        SCON=0x50;
  14   1      }
  15          
  16            void recieve(uchar idata *d){
  17   1        uchar i;
  18   1        do{
  19   2        while(RI==0);RI=0;
  20   2        }while((SBUF^0xaa)!=0);
  21   1        SBUF=0xbb;
  22   1        while(TI==0);TI=0;
  23   1        while(1){
  24   2        pf=0;
  25   2        for(i=0;i<16;i++){
  26   3        while(RI==0);RI=0;
  27   3        d[i]=SBUF;
  28   3        pf+=d[i];
  29   3        }
  30   2        while(RI==0);RI=0;
  31   2        if((SBUF^pf)==0){
  32   3        SBUF=0x00;break;}
  33   2        else{
  34   3        SBUF=0xff;
  35   3        while(TI==0);TI=0;
  36   3        }
  37   2        }
  38   1        }
  39            void main(void){
  40   1        init();
  41   1        recieve(buf);
  42   1        P0=0x01;
  43   1        P2=SBUF;
  44   1        }


MODULE INFORMATION:   STATIC OVERLAYABLE
   CODE SIZE        =     99    ----
   CONSTANT SIZE    =   ----    ----
   XDATA SIZE       =   ----    ----
   PDATA SIZE       =   ----    ----
   DATA SIZE        =      1    ----
   IDATA SIZE       =     10    ----
   BIT SIZE         =   ----    ----
END OF MODULE INFORMATION.

C51 COMPILER V9.00   IICRECIEVED                                                           04/22/2011 14:54:00 PAGE 2   


C51 COMPILATION COMPLETE.  0 WARNING(S),  0 ERROR(S)
